Using ipumsr to load immigrant statistics – Code Library
…
Benchmark your data

Run a US population benchmark using the Census ACS table statistics to check your data before continuing.

# Do your US population estimates benchmark with the Census ACS table statistics?
#   https://data.census.gov/table/ACSDP1Y2023.DP05?q=DP05:+ACS+Demographic+and+Housing+Estimates

us_pop <- acs |> 
summarize(pop = sum(perwt, na.rm=TRUE),
          .by=year)

us_pop

# A tibble: 24 × 2
    year       pop
   <int>     <dbl>
 1  2000 281421906
 2  2001 277075792
 3  2002 280717370
 4  2003 283051379
 5  2004 285674993
 6  2005 288398819
 7  2006 299398485
 8  2007 301621159
 9  2008 304059728
10  2009 307006556
# ℹ 14 more rows
…
This code can also be easily altered to filter for specific groups. For example, you can filter by state, specific industry, or for prime-age workers. See the commented-out commands for examples. Be sure to check for viable sample sizes when using a smaller data set.

# Population by citizenship status and year 2000–2023
foreign_born_total <- acs |> 
  ## filter to just North Carolina
  # filter(statefip == 37) |>
  mutate(citizen = to_factor(citizen)) |> 
  summarize(pop = sum(perwt, na.rm=TRUE),
            .by=c(year, citizen)) |> 
  pivot_wider(id_cols = year, names_from = citizen, values_from = pop)

foreign_born_total

# A tibble: 24 × 5
    year `Not foreign born` `Not a citizen` `Naturalized citizen`
   <int>              <dbl>           <dbl>                 <dbl>
 1  2000          248371297        18599549              12533932
 2  2001          243578016        18804708              12743420
 3  2002          245639288        19565399              13530751
 4  2003          247351604        19749916              13917762
 5  2004          249429239        19857656              14400045
 6  2005          250569155        20836032              14933571
 7  2006          259759423        21696303              15773084
 8  2007          261446898        21843559              16204897
 9  2008          263619759        21685745              16330357
10  2009          266132797        21640993              16811829
# ℹ 14 more rows
# ℹ 1 more variable: `Born abroad of American parents` <dbl>

# Population by nativity and year 2000–2023
nativity <- acs |> 
  mutate(nativity = to_factor(nativity)) |> 
  summarize(pop = sum(perwt, na.rm=TRUE),
            .by=c(year, nativity)) |>
  mutate(share = pop/sum(pop), .by=year) |> 
  pivot_wider(id_cols = year, names_from = nativity, values_from = c(pop, share))

nativity

# A tibble: 24 × 5
    year pop_Native `pop_Foreign-born` share_Native `share_Foreign-born`
   <int>      <dbl>              <dbl>        <dbl>                <dbl>
 1  2000  250288425           31133481        0.889                0.111
 2  2001  245527664           31548128        0.886                0.114
 3  2002  247621220           33096150        0.882                0.118
 4  2003  249383701           33667678        0.881                0.119
 5  2004  251417292           34257701        0.880                0.120
 6  2005  252629216           35769603        0.876                0.124
 7  2006  261929098           37469387        0.875                0.125
 8  2007  263572703           38048456        0.874                0.126
 9  2008  266043626           38016102        0.875                0.125
10  2009  268553734           38452822        0.875                0.125
# ℹ 14 more rows
…
nativity_ind

# A tibble: 302 × 7
   ind       total_emp_Native `total_emp_Foreign-born` share_Native
   <int+lbl>            <dbl>                    <dbl>        <dbl>
 1 9160              1018174.                  128856.     0.00767 
 2 5170               682919                   139648.     0.00514 
 3 7870              3681723.                  803696.     0.0277  
 4 5570               100653                    15650.     0.000758
 5 6480               135431                    17229.     0.00102 
 6 3291               667545                   118284      0.00503 
 7 8680              7329304.                 1796732.     0.0552  
 8 9670               401908                    34028.     0.00303 
 9 5391              1614827.                  217887.     0.0122  
10 5490               176175                    27847      0.00133 
# ℹ 292 more rows
# ℹ 3 more variables: `share_Foreign-born` <dbl>, n_Native <int>,
#   `n_Foreign-born` <int>
…
