EARN Code Library (draft) – inflation_adjusting
…
years <- 1978:2021
start_wage <- 5 # Arbitrary starting wage in 1978, in dollars

# Generate fake wage data with an average increase of 2.5% per year with some random noise
fake_wages <- cumprod(rep(1.025, length(years)) + rnorm(length(years), mean = 0, sd = 0.02)) * start_wage

# Create a tibble
wage_data <- tibble(
  year = years,
  avg_hrly_wage = round(fake_wages, 2) 
)

wage_data

# A tibble: 44 × 2
    year avg_hrly_wage
   <int>         <dbl>
 1  1978          5.07
 2  1979          5.17
 3  1980          5.46
 4  1981          5.61
 5  1982          5.76
 6  1983          6.1 
 7  1984          6.31
 8  1985          6.31
 9  1986          6.38
10  1987          6.48
# ℹ 34 more rows
…
Below, I merge the CPI-U-RS index to our fictitious wage-data, and then inflation adjust our wages using this same procedure.

#Load example data of US personal expenditures on various household goods.
clean_data <- wage_data %>% 
 
  #Merge CPI data to dataframe by year.
  left_join(cpi_data, by='year') %>% 
  
  #This mutate command multiplies adjust personal expenditures
  mutate(real_wage = avg_hrly_wage*(cpi2022/cpi_u_rs))
  
clean_data

# A tibble: 44 × 4
    year avg_hrly_wage cpi_u_rs real_wage
   <dbl>         <dbl>    <dbl>     <dbl>
 1  1978          5.07     104.      21.0
 2  1979          5.17     114.      19.5
 3  1980          5.46     127.      18.5
 4  1981          5.61     139.      17.4
 5  1982          5.76     148.      16.9
 6  1983          6.1      154.      17.1
 7  1984          6.31     160.      17.0
 8  1985          6.31     166.      16.4
 9  1986          6.38     168.      16.3
10  1987          6.48     174.      16.1
# ℹ 34 more rows
