Weighted percentiles – Code Library
…
First I’ll show you how you might do that and then I’ll break it down step-by-step.

# percentiles of interest
p <- c(10, 50, 90)

# calculate percentiles
cps_data %>% 
  reframe(
    percentile = p, 
    value = weighted_quantile(wage, w = orgwgt, probs = p / 100),
    .by = year
  )

# A tibble: 132 × 3
    year percentile value
   <int>      <dbl> <dbl>
 1  1979         10  2.90
 2  1979         50  5   
 3  1979         90 10.1 
 4  1980         10  3.10
 5  1980         50  5.62
 6  1980         90 11.2 
 7  1981         10  3.35
 8  1981         50  6.05
 9  1981         90 12.5 
10  1982         10  3.35
# ℹ 122 more rows
…
Notice how we used probs = p / 100 in the arguments to weighted_quantile().

Finally, to calculate percentiles for each year, we can use the .by argument of reframe.

cps_data %>% 
  reframe(
    percentile = p, 
    value = weighted_quantile(wage, w = orgwgt, probs = p / 100),
    .by = year
  ) 

# A tibble: 132 × 3
    year percentile value
   <int>      <dbl> <dbl>
 1  1979         10  2.90
 2  1979         50  5   
 3  1979         90 10.1 
 4  1980         10  3.10
 5  1980         50  5.62
 6  1980         90 11.2 
 7  1981         10  3.35
 8  1981         50  6.05
 9  1981         90 12.5 
10  1982         10  3.35
# ℹ 122 more rows
…
While long data like that is useful for additional analysis, if you need to see more of the data at once, like for a table, you might want to make the data wider. With pivot_wider() you can reshape the data so that it is long in years and wide in percentiles.

cps_data %>%
  reframe(
    percentile = p,
    value = weighted_quantile(wage, w = orgwgt, probs = p / 100),
    .by = year
  ) %>%
  pivot_wider(id_cols = year, names_from = percentile, values_from = value)

# A tibble: 44 × 4
    year  `10`  `50`  `90`
   <int> <dbl> <dbl> <dbl>
 1  1979  2.90  5     10.1
 2  1980  3.10  5.62  11.2
 3  1981  3.35  6.05  12.5
 4  1982  3.35  6.5   13.1
 5  1983  3.40  6.70  14  
 6  1984  3.5   7     15.0
 7  1985  3.5   7.47  15  
 8  1986  3.60  7.5   16  
 9  1987  3.75  8     16.8
10  1988  4     8.02  17.5
# ℹ 34 more rows

Of course, the column names are pretty ugly. You could add a “th” to the column names from the get-go.

cps_data %>%
  reframe(
    percentile = paste0(p, "th"),
    value = weighted_quantile(wage, w = orgwgt, probs = p / 100),
    .by = year
  ) %>%
  pivot_wider(id_cols = year, names_from = percentile, values_from = value)

# A tibble: 44 × 4
    year `10th` `50th` `90th`
   <int>  <dbl>  <dbl>  <dbl>
 1  1979   2.90   5      10.1
 2  1980   3.10   5.62   11.2
 3  1981   3.35   6.05   12.5
 4  1982   3.35   6.5    13.1
 5  1983   3.40   6.70   14  
 6  1984   3.5    7      15.0
 7  1985   3.5    7.47   15  
 8  1986   3.60   7.5    16  
 9  1987   3.75   8      16.8
10  1988   4      8.02   17.5
# ℹ 34 more rows
…
cps_data %>%
  reframe(
    percentile = p,
    value = weighted_quantile(wage, w = orgwgt, probs = p / 100),
    .by = year
  ) %>%
  pivot_wider(
    id_cols = year,
    names_from = percentile,
    values_from = value,
    names_prefix = "p_"
  )

# A tibble: 44 × 4
    year  p_10  p_50  p_90
   <int> <dbl> <dbl> <dbl>
 1  1979  2.90  5     10.1
 2  1980  3.10  5.62  11.2
 3  1981  3.35  6.05  12.5
 4  1982  3.35  6.5   13.1
 5  1983  3.40  6.70  14  
 6  1984  3.5   7     15.0
 7  1985  3.5   7.47  15  
 8  1986  3.60  7.5   16  
 9  1987  3.75  8     16.8
10  1988  4     8.02  17.5
# ℹ 34 more rows

Extra credit

Consider the concise code

cps_data %>%
  reframe(
    name = p,
    value = weighted_quantile(wage, w = orgwgt, probs = p / 100),
    .by = year
  ) %>%
  pivot_wider(id_cols = year, names_prefix = "p_")

# A tibble: 44 × 4
    year  p_10  p_50  p_90
   <int> <dbl> <dbl> <dbl>
 1  1979  2.90  5     10.1
 2  1980  3.10  5.62  11.2
 3  1981  3.35  6.05  12.5
 4  1982  3.35  6.5   13.1
 5  1983  3.40  6.70  14  
 6  1984  3.5   7     15.0
 7  1985  3.5   7.47  15  
 8  1986  3.60  7.5   16  
 9  1987  3.75  8     16.8
10  1988  4     8.02  17.5
# ℹ 34 more rows
…
